{
  "version": "2.0",
  "licenses": [
    {
      "id": "MIT",
      "name": "MIT License",
      "url": "https://opensource.org/licenses/MIT",
      "count": 7
    },
    {
      "id": "Apache-2.0",
      "name": "Apache License 2.0",
      "url": "https://opensource.org/licenses/Apache-2.0",
      "count": 6
    },
    {
      "id": "Unlicense",
      "name": "The Unlicense",
      "url": "https://unlicense.org/",
      "count": 1
    }
  ],
  "dependencies": [
    {
      "name": "byteorder",
      "url": "",
      "description": "",
      "paths": [
        "."
      ],
      "licenses": [
        "MIT",
        "Unlicense"
      ]
    },
    {
      "name": "diesel",
      "url": "",
      "description": "",
      "paths": [
        "."
      ],
      "licenses": [
        "Apache-2.0",
        "MIT"
      ]
    },
    {
      "name": "diesel_derives",
      "url": "",
      "description": "",
      "paths": [
        "."
      ],
      "licenses": [
        "Apache-2.0",
        "MIT"
      ]
    },
    {
      "name": "proc-macro2",
      "url": "",
      "description": "",
      "paths": [
        "."
      ],
      "licenses": [
        "Apache-2.0",
        "MIT"
      ]
    },
    {
      "name": "quote",
      "url": "",
      "description": "",
      "paths": [
        "."
      ],
      "licenses": [
        "Apache-2.0",
        "MIT"
      ]
    },
    {
      "name": "syn",
      "url": "",
      "description": "",
      "paths": [
        "."
      ],
      "licenses": [
        "Apache-2.0",
        "MIT"
      ]
    },
    {
      "name": "unicode-xid",
      "url": "",
      "description": "",
      "paths": [
        "."
      ],
      "licenses": [
        "Apache-2.0",
        "MIT"
      ]
    }
  ]
}